{
    "editor": [
        {
            "icon": "",
            "key": "settings",
            "header": "Settings",
            "disabled": false,
            "fields": [
                {
                    "key": "title",
                    "header": "Title",
                    "type": "text"
                },
                {
                    "key": "titleFont",
                    "header": "Google Font Name",
                    "type": "text"
                },
                {
                    "key": "titleColor",
                    "header": "Title Color",
                    "type": "color"
                },
                {
                    "key": "description",
                    "header": "description",
                    "type": "text"
                },
                {
                    "key": "desColor",
                    "header": "Description Color",
                    "type": "color"
                },
                {
                    "key": "labelColor",
                    "header": "Label Color",
                    "type": "color"
                },
                {
                    "key": "backgroundImage",
                    "header": "Background Image",
                    "type": "image"
                },
                {
                    "key": "items",
                    "header": "Items",
                    "type": "array",
                    "fields": [
                        {
                            "key": "item1",
                            "header": "Item 1",
                            "type": "array",
                            "fields": [
                                {
                                    "key": "image",
                                    "header": "Item 1 Image",
                                    "type": "image"
                                },
                                {
                                    "key": "label",
                                    "header": "Item 1 Label",
                                    "type": "text"
                                },
                                {
                                    "key": "probability",
                                    "header": "Probabilty of item",
                                    "type": "number"
                                }
                            ]
                        },
                        {
                            "key": "item2",
                            "header": "Item 2",
                            "type": "array",
                            "fields": [
                                {
                                    "key": "image",
                                    "header": "Item 2 Image",
                                    "type": "image"
                                },
                                {
                                    "key": "label",
                                    "header": "Item 2 Label",
                                    "type": "text"
                                },
                                {
                                    "key": "probability",
                                    "header": "Probabilty of item",
                                    "type": "number"
                                }
                            ]
                        },
                        {
                            "key": "item3",
                            "header": "Item 3",
                            "type": "array",
                            "fields": [
                                {
                                    "key": "image",
                                    "header": "Item 3 Image",
                                    "type": "image"
                                },
                                {
                                    "key": "label",
                                    "header": "Item 3 Label",
                                    "type": "text"
                                },
                                {
                                    "key": "probability",
                                    "header": "Probabilty of item",
                                    "type": "number"
                                }
                            ]
                        },
                        {
                            "key": "item4",
                            "header": "Item 4",
                            "type": "array",
                            "fields": [
                                {
                                    "key": "image",
                                    "header": "Item 4 Image",
                                    "type": "image"
                                },
                                {
                                    "key": "label",
                                    "header": "Item 4 Label",
                                    "type": "text"
                                },
                                {
                                    "key": "probability",
                                    "header": "Probabilty of item",
                                    "type": "number"
                                }
                            ]
                        },
                        {
                            "key": "item5",
                            "header": "Item 5",
                            "type": "array",
                            "fields": [
                                {
                                    "key": "image",
                                    "header": "Item 5 Image",
                                    "type": "image"
                                },
                                {
                                    "key": "label",
                                    "header": "Item 5 Label",
                                    "type": "text"
                                },
                                {
                                    "key": "probability",
                                    "header": "Probabilty of item",
                                    "type": "number"
                                }
                            ]
                        }
                    ]
                }
            ]
        }
    ],
    "config": {
        "settings": {
            "title": "Next $100B company",
            "titleFont": "Sanchez",
            "titleColor": "#ffffff",
            "description": "Scratch the crystal ball",
            "desColor": "#b9b9b9",
            "backgroundImage": "https://frontend.apps.playcent.com/6a65ae4db4bc4ac882a99353d007e596/assets/tumblr_n36a3c3MKk1sujoggo1_400.gif",
            "labelColor": "#ffffff",
            "items": {
                "item1": {
                    "image": "https://frontend.apps.playcent.com/49d9bf103b074d7783712f99da7fe96c/assets/27302_c0-41-990-701_r1050x700 (1).jpg",
                    "label": "OYO",
                    "probability": "0.5"
                },
                "item2": {
                    "image": "https://frontend.apps.playcent.com/49d9bf103b074d7783712f99da7fe96c/assets/27302_c0-41-990-701_r1050x700 (1).jpg",
                    "label": "WeWork",
                    "probability": "0.5"
                },
                "item3": {
                    "image": "https://frontend.apps.playcent.com/49d9bf103b074d7783712f99da7fe96c/assets/27302_c0-41-990-701_r1050x700 (1).jpg",
                    "label": "Quibi",
                    "probability": "0.5"
                },
                "item4": {
                    "image": "https://frontend.apps.playcent.com/49d9bf103b074d7783712f99da7fe96c/assets/27302_c0-41-990-701_r1050x700 (1).jpg",
                    "label": "Enron",
                    "probability": "0.5"
                },
                "item5": {
                    "image": "https://frontend.apps.playcent.com/49d9bf103b074d7783712f99da7fe96c/assets/27302_c0-41-990-701_r1050x700 (1).jpg",
                    "label": "Blockbuster",
                    "probability": "0.5"
                }
            }
        }
    }
}